%TF.GenerationSoftware,KiCad,Pcbnew,6.0.2+dfsg-1*%
%TF.CreationDate,2022-10-05T15:01:21+03:00*%
%TF.ProjectId,RN4871_Bluetooth_Shield,524e3438-3731-45f4-926c-7565746f6f74,01*%
%TF.SameCoordinates,Original*%
%TF.FileFunction,Plated,1,2,PTH,Drill*%
%TF.FilePolarity,Positive*%
%FSLAX46Y46*%
G04 Gerber Fmt 4.6, Leading zero omitted, Abs format (unit mm)*
G04 Created by KiCad (PCBNEW 6.0.2+dfsg-1) date 2022-10-05 15:01:21*
%MOMM*%
%LPD*%
G01*
G04 APERTURE LIST*
%TA.AperFunction,ViaDrill*%
%ADD10C,0.800000*%
%TD*%
%TA.AperFunction,ComponentDrill*%
%ADD11C,0.850000*%
%TD*%
%TA.AperFunction,ComponentDrill*%
%ADD12C,1.000000*%
%TD*%
%TA.AperFunction,ComponentDrill*%
%ADD13C,1.500000*%
%TD*%
%TA.AperFunction,ComponentDrill*%
%ADD14C,2.500000*%
%TD*%
G04 APERTURE END LIST*
D10*
X93700000Y-69330000D03*
X96960403Y-74969597D03*
X104200000Y-59055500D03*
X105900000Y-67930000D03*
X110950000Y-77480000D03*
D11*
%TO.C,SW1*%
X111200000Y-63880000D03*
X111200000Y-66880000D03*
D12*
%TO.C,J1*%
X97790000Y-77470000D03*
X100330000Y-77470000D03*
X102870000Y-77470000D03*
X105410000Y-77470000D03*
X107950000Y-77470000D03*
D13*
X95250000Y-77470000D03*
D14*
%TO.C,REF\u002A\u002A*%
X107950000Y-58420000D03*
M02*
