%TF.GenerationSoftware,KiCad,Pcbnew,6.0.7-f9a2dced07~116~ubuntu20.04.1*%
%TF.CreationDate,2022-09-29T10:37:06+03:00*%
%TF.ProjectId,AuralCostumePCB,41757261-6c43-46f7-9374-756d65504342,rev?*%
%TF.SameCoordinates,Original*%
%TF.FileFunction,Copper,L2,Bot*%
%TF.FilePolarity,Positive*%
%FSLAX46Y46*%
G04 Gerber Fmt 4.6, Leading zero omitted, Abs format (unit mm)*
G04 Created by KiCad (PCBNEW 6.0.7-f9a2dced07~116~ubuntu20.04.1) date 2022-09-29 10:37:06*
%MOMM*%
%LPD*%
G01*
G04 APERTURE LIST*
%TA.AperFunction,Profile*%
%ADD10C,0.100000*%
%TD*%
%TA.AperFunction,ComponentPad*%
%ADD11C,2.100000*%
%TD*%
%TA.AperFunction,ComponentPad*%
%ADD12O,2.100000X2.100000*%
%TD*%
%TA.AperFunction,ComponentPad*%
%ADD13O,1.700000X1.700000*%
%TD*%
%TA.AperFunction,ComponentPad*%
%ADD14O,2.300000X2.300000*%
%TD*%
%TA.AperFunction,ComponentPad*%
%ADD15C,1.700000*%
%TD*%
%TA.AperFunction,ViaPad*%
%ADD16C,1.600000*%
%TD*%
%TA.AperFunction,Conductor*%
%ADD17C,0.400000*%
%TD*%
G04 APERTURE END LIST*
D10*
X152400000Y-148590000D02*
X147320000Y-148590000D01*
X162560000Y-80010000D02*
X162560000Y-152400000D01*
X137160000Y-152400000D02*
X137160000Y-80010000D01*
X153670000Y-149860000D02*
G75*
G03*
X152400000Y-148590000I-1270000J0D01*
G01*
X147320000Y-148590000D02*
G75*
G03*
X146050000Y-149860000I0J-1270000D01*
G01*
X144780000Y-151130000D02*
G75*
G03*
X144780000Y-151130000I-1270000J0D01*
G01*
X144780000Y-153670000D02*
G75*
G03*
X146050000Y-152400000I0J1270000D01*
G01*
X138430000Y-78740000D02*
X161290000Y-78740000D01*
X161290000Y-153670000D02*
G75*
G03*
X162560000Y-152400000I0J1270000D01*
G01*
X153670000Y-152400000D02*
X153670000Y-149860000D01*
X144780000Y-153670000D02*
X138430000Y-153670000D01*
X138430000Y-78740000D02*
G75*
G03*
X137160000Y-80010000I0J-1270000D01*
G01*
X157480000Y-151130000D02*
G75*
G03*
X157480000Y-151130000I-1270000J0D01*
G01*
X146050000Y-149860000D02*
X146050000Y-152400000D01*
X153670000Y-152400000D02*
G75*
G03*
X154940000Y-153670000I1270000J0D01*
G01*
X161290000Y-153670000D02*
X154940000Y-153670000D01*
X162560000Y-80010000D02*
G75*
G03*
X161290000Y-78740000I-1270000J0D01*
G01*
X137160000Y-152400000D02*
G75*
G03*
X138430000Y-153670000I1270000J0D01*
G01*
D11*
%TO.P,J3,1,Pin_1*%
%TO.N,/BT_TX*%
X160020000Y-109220000D03*
D12*
%TO.P,J3,2,Pin_2*%
%TO.N,/BT_RX*%
X160020000Y-106680000D03*
%TO.P,J3,3,Pin_3*%
%TO.N,/BT_CFG*%
X160020000Y-104140000D03*
D13*
%TO.P,J3,4,Pin_4*%
%TO.N,PWR_GND*%
X160020000Y-101600000D03*
D14*
%TO.P,J3,5,Pin_5*%
%TO.N,PWR_3V3*%
X160020000Y-99060000D03*
D13*
%TO.P,J3,6,Pin_6*%
%TO.N,unconnected-(J3-Pad6)*%
X160020000Y-96520000D03*
%TO.P,J3,7,Pin_7*%
%TO.N,PWR_5V*%
X160020000Y-93980000D03*
%TD*%
D15*
%TO.P,J2,1,Pin_1*%
%TO.N,unconnected-(J2-Pad1)*%
X160020000Y-127000000D03*
D13*
%TO.P,J2,2,Pin_2*%
%TO.N,unconnected-(J2-Pad2)*%
X160020000Y-124460000D03*
%TO.P,J2,3,Pin_3*%
%TO.N,unconnected-(J2-Pad3)*%
X160020000Y-121920000D03*
%TO.P,J2,4,Pin_4*%
%TO.N,unconnected-(J2-Pad4)*%
X160020000Y-119380000D03*
%TO.P,J2,5,Pin_5*%
%TO.N,unconnected-(J2-Pad5)*%
X160020000Y-116840000D03*
%TO.P,J2,6,Pin_6*%
%TO.N,/I2C_SDA*%
X160020000Y-114300000D03*
%TO.P,J2,7,Pin_7*%
%TO.N,/I2C_SCL*%
X160020000Y-111760000D03*
%TD*%
D15*
%TO.P,J4,1,Pin_1*%
%TO.N,/I2S_DIN*%
X139700000Y-111760000D03*
D13*
%TO.P,J4,2,Pin_2*%
%TO.N,unconnected-(J4-Pad2)*%
X139700000Y-114300000D03*
%TO.P,J4,3,Pin_3*%
%TO.N,unconnected-(J4-Pad3)*%
X139700000Y-116840000D03*
%TO.P,J4,4,Pin_4*%
%TO.N,/I2S_BCLK*%
X139700000Y-119380000D03*
%TO.P,J4,5,Pin_5*%
%TO.N,/I2S_LRC*%
X139700000Y-121920000D03*
%TO.P,J4,6,Pin_6*%
%TO.N,/LED_DIO*%
X139700000Y-124460000D03*
%TO.P,J4,7,Pin_7*%
%TO.N,unconnected-(J4-Pad7)*%
X139700000Y-127000000D03*
%TD*%
D15*
%TO.P,J5,1,Pin_1*%
%TO.N,unconnected-(J5-Pad1)*%
X139700000Y-93980000D03*
D13*
%TO.P,J5,2,Pin_2*%
%TO.N,/FLEX_02*%
X139700000Y-96520000D03*
%TO.P,J5,3,Pin_3*%
%TO.N,/FLEX_01*%
X139700000Y-99060000D03*
%TO.P,J5,4,Pin_4*%
%TO.N,unconnected-(J5-Pad4)*%
X139700000Y-101600000D03*
%TO.P,J5,5,Pin_5*%
%TO.N,unconnected-(J5-Pad5)*%
X139700000Y-104140000D03*
%TO.P,J5,6,Pin_6*%
%TO.N,unconnected-(J5-Pad6)*%
X139700000Y-106680000D03*
%TO.P,J5,7,Pin_7*%
%TO.N,unconnected-(J5-Pad7)*%
X139700000Y-109220000D03*
%TD*%
D15*
%TO.P,J8,1,Pin_1*%
%TO.N,/I2S_LRC*%
X142240000Y-137160000D03*
D13*
%TO.P,J8,2,Pin_2*%
%TO.N,/I2S_BCLK*%
X144780000Y-137160000D03*
%TO.P,J8,3,Pin_3*%
%TO.N,/I2S_DIN*%
X147320000Y-137160000D03*
%TO.P,J8,4,Pin_4*%
%TO.N,unconnected-(J8-Pad4)*%
X149860000Y-137160000D03*
%TO.P,J8,5,Pin_5*%
%TO.N,unconnected-(J8-Pad5)*%
X152400000Y-137160000D03*
%TO.P,J8,6,Pin_6*%
%TO.N,PWR_GND*%
X154940000Y-137160000D03*
%TO.P,J8,7,Pin_7*%
%TO.N,PWR_5V*%
X157480000Y-137160000D03*
%TD*%
D16*
%TO.N,PWR_3V3*%
X153880500Y-83960000D03*
%TO.N,/BT_CFG*%
X153880000Y-81760000D03*
%TO.N,/BT_TX*%
X140680000Y-91160000D03*
%TO.N,/BT_RX*%
X140680000Y-88960000D03*
%TD*%
D17*
%TO.N,/BT_TX*%
X153280000Y-104360000D02*
X158140000Y-109220000D01*
X140680000Y-91160000D02*
X142880000Y-91160000D01*
X142880000Y-91160000D02*
X153280000Y-101560000D01*
X153280000Y-101560000D02*
X153280000Y-104360000D01*
X158140000Y-109220000D02*
X160020000Y-109220000D01*
%TO.N,/BT_CFG*%
X153880000Y-81760000D02*
X152480500Y-83159500D01*
X152480500Y-83159500D02*
X152480500Y-84539899D01*
X153680000Y-85739399D02*
X153680000Y-97800000D01*
X152480500Y-84539899D02*
X153680000Y-85739399D01*
X153680000Y-97800000D02*
X160020000Y-104140000D01*
%TO.N,/BT_RX*%
X140680000Y-88960000D02*
X140680000Y-89151747D01*
X140683773Y-89155520D02*
X142075520Y-89155520D01*
X140680000Y-89151747D02*
X140683773Y-89155520D01*
X142075520Y-89155520D02*
X154080000Y-101160000D01*
X154080000Y-101160000D02*
X154080000Y-103960000D01*
X154080000Y-103960000D02*
X156800000Y-106680000D01*
X156800000Y-106680000D02*
X160020000Y-106680000D01*
%TO.N,PWR_3V3*%
X153880500Y-83960000D02*
X154480000Y-84559500D01*
X154480000Y-84559500D02*
X154480000Y-89360000D01*
X154480000Y-89360000D02*
X157880000Y-92760000D01*
X157880000Y-92760000D02*
X157880000Y-96920000D01*
X157880000Y-96920000D02*
X160020000Y-99060000D01*
%TD*%
M02*
