{
  "board": {
    "design_settings": {
      "defaults": {
        "board_outline_line_width": 0.09999999999999999,
        "copper_line_width": 0.19999999999999998,
        "copper_text_italic": false,
        "copper_text_size_h": 1.5,
        "copper_text_size_v": 1.5,
        "copper_text_thickness": 0.3,
        "copper_text_upright": false,
        "courtyard_line_width": 0.049999999999999996,
        "dimension_precision": 4,
        "dimension_units": 3,
        "dimensions": {
          "arrow_length": 1270000,
          "extension_offset": 500000,
          "keep_text_aligned": true,
          "suppress_zeroes": false,
          "text_position": 0,
          "units_format": 1
        },
        "fab_line_width": 0.09999999999999999,
        "fab_text_italic": false,
        "fab_text_size_h": 1.0,
        "fab_text_size_v": 1.0,
        "fab_text_thickness": 0.15,
        "fab_text_upright": false,
        "other_line_width": 0.15,
        "other_text_italic": false,
        "other_text_size_h": 1.0,
        "other_text_size_v": 1.0,
        "other_text_thickness": 0.15,
        "other_text_upright": false,
        "pads": {
          "drill": 0.85,
          "height": 0.9,
          "width": 0.9
        },
        "silk_line_width": 0.15,
        "silk_text_italic": false,
        "silk_text_size_h": 1.0,
        "silk_text_size_v": 1.0,
        "silk_text_thickness": 0.15,
        "silk_text_upright": false,
        "zones": {
          "45_degree_only": false,
          "min_clearance": 0.508
        }
      },
      "diff_pair_dimensions": [
        {
          "gap": 0.0,
          "via_gap": 0.0,
          "width": 0.0
        }
      ],
      "drc_exclusions": [
        "invalid_outline|102870000|58420000|a50a5e27-21c5-490b-a514-6bf8217a1041|36c96664-941a-4975-ad53-0b3d2684b31f",
        "invalid_outline|104140001|54610001|524ccacb-8f9e-4b05-bebd-613a38f89442|00000000-0000-0000-0000-000000000000",
        "invalid_outline|90170001|60960001|8dd2a340-148d-4266-8589-2762606c2768|00000000-0000-0000-0000-000000000000",
        "silk_over_copper|106102380|70744285|f37f4fd2-2740-4984-ac7f-f80065bd2757|bb4dbbaa-4b5d-4e6d-8c43-1b8be9dab861",
        "silk_over_copper|108161904|68532380|ba546f3f-9f91-45b7-b7e2-ee37445d0461|8a319a49-da7c-4605-9edc-b6b88d6dcace",
        "silk_over_copper|109430000|64630000|7b573841-0d69-4c95-a545-76ac472425dc|424f4081-7ea5-4682-9340-63ad3b63825a",
        "silk_over_copper|113030000|65400000|5ae75a6e-46e9-445b-82d5-c842ca8f0c53|63d618ab-b14e-4d8b-b4b9-93250a810480",
        "silk_over_copper|113040000|63560000|5ae75a6e-46e9-445b-82d5-c842ca8f0c53|61f4e7f9-83ae-434a-8197-1793ca31e5d3",
        "silk_over_copper|113040000|67350000|5ae75a6e-46e9-445b-82d5-c842ca8f0c53|c861cf8a-31e4-47f9-9d70-ba48e4f39ce1",
        "silk_over_copper|94559523|76632380|ed6eac1d-cbe2-4fed-8bae-5f5999b4509d|72d726fa-6d90-4503-be2f-6f8a3d8bacb9",
        "silk_overlap|105800000|71030000|f37f4fd2-2740-4984-ac7f-f80065bd2757|6ffa4a0b-131d-4bfe-aa83-11979c841713",
        "silk_overlap|105948303|65067600|d599ee5f-5c96-4c6d-a4f2-87e98db0087b|45099ef8-b470-4f34-a90e-0a936a6b6d10",
        "silk_overlap|106102380|71887142|f37f4fd2-2740-4984-ac7f-f80065bd2757|4b4e7679-acd2-4382-b146-320233504a7f",
        "silk_overlap|108400000|71956190|191d745f-09ac-41b7-84e9-9c35abccd72d|4b4e7679-acd2-4382-b146-320233504a7f"
      ],
      "meta": {
        "version": 2
      },
      "rule_severities": {
        "annular_width": "error",
        "clearance": "error",
        "copper_edge_clearance": "error",
        "courtyards_overlap": "error",
        "diff_pair_gap_out_of_range": "error",
        "diff_pair_uncoupled_length_too_long": "error",
        "drill_out_of_range": "error",
        "duplicate_footprints": "warning",
        "extra_footprint": "warning",
        "footprint_type_mismatch": "error",
        "hole_clearance": "error",
        "hole_near_hole": "error",
        "invalid_outline": "error",
        "item_on_disabled_layer": "error",
        "items_not_allowed": "error",
        "length_out_of_range": "error",
        "malformed_courtyard": "error",
        "microvia_drill_out_of_range": "error",
        "missing_courtyard": "ignore",
        "missing_footprint": "warning",
        "net_conflict": "warning",
        "npth_inside_courtyard": "ignore",
        "padstack": "error",
        "pth_inside_courtyard": "ignore",
        "shorting_items": "error",
        "silk_over_copper": "warning",
        "silk_overlap": "warning",
        "skew_out_of_range": "error",
        "through_hole_pad_without_hole": "error",
        "too_many_vias": "error",
        "track_dangling": "warning",
        "track_width": "error",
        "tracks_crossing": "error",
        "unconnected_items": "error",
        "unresolved_variable": "error",
        "via_dangling": "warning",
        "zone_has_empty_net": "error",
        "zones_intersect": "error"
      },
      "rules": {
        "allow_blind_buried_vias": false,
        "allow_microvias": false,
        "max_error": 0.005,
        "min_clearance": 0.0,
        "min_copper_edge_clearance": 0.0,
        "min_hole_clearance": 0.25,
        "min_hole_to_hole": 0.25,
        "min_microvia_diameter": 0.19999999999999998,
        "min_microvia_drill": 0.09999999999999999,
        "min_silk_clearance": 0.0,
        "min_through_hole_diameter": 0.3,
        "min_track_width": 0.19999999999999998,
        "min_via_annular_width": 0.049999999999999996,
        "min_via_diameter": 0.39999999999999997,
        "solder_mask_clearance": 0.0,
        "solder_mask_min_width": 0.0,
        "use_height_for_length_calcs": true
      },
      "track_widths": [
        0.0
      ],
      "via_dimensions": [
        {
          "diameter": 0.0,
          "drill": 0.0
        }
      ],
      "zones_allow_external_fillets": false,
      "zones_use_no_outline": true
    },
    "layer_presets": []
  },
  "boards": [],
  "cvpcb": {
    "equivalence_files": []
  },
  "erc": {
    "erc_exclusions": [],
    "meta": {
      "version": 0
    },
    "pin_map": [
      [
        0,
        0,
        0,
        0,
        0,
        0,
        1,
        0,
        0,
        0,
        0,
        2
      ],
      [
        0,
        2,
        0,
        1,
        0,
        0,
        1,
        0,
        2,
        2,
        2,
        2
      ],
      [
        0,
        0,
        0,
        0,
        0,
        0,
        1,
        0,
        1,
        0,
        1,
        2
      ],
      [
        0,
        1,
        0,
        0,
        0,
        0,
        1,
        1,
        2,
        1,
        1,
        2
      ],
      [
        0,
        0,
        0,
        0,
        0,
        0,
        1,
        0,
        0,
        0,
        0,
        2
      ],
      [
        0,
        0,
        0,
        0,
        0,
        0,
        0,
        0,
        0,
        0,
        0,
        2
      ],
      [
        1,
        1,
        1,
        1,
        1,
        0,
        1,
        1,
        1,
        1,
        1,
        2
      ],
      [
        0,
        0,
        0,
        1,
        0,
        0,
        1,
        0,
        0,
        0,
        0,
        2
      ],
      [
        0,
        2,
        1,
        2,
        0,
        0,
        1,
        0,
        2,
        2,
        2,
        2
      ],
      [
        0,
        2,
        0,
        1,
        0,
        0,
        1,
        0,
        2,
        0,
        0,
        2
      ],
      [
        0,
        2,
        1,
        1,
        0,
        0,
        1,
        0,
        2,
        0,
        0,
        2
      ],
      [
        2,
        2,
        2,
        2,
        2,
        2,
        2,
        2,
        2,
        2,
        2,
        2
      ]
    ],
    "rule_severities": {
      "bus_definition_conflict": "error",
      "bus_entry_needed": "error",
      "bus_label_syntax": "error",
      "bus_to_bus_conflict": "error",
      "bus_to_net_conflict": "error",
      "different_unit_footprint": "error",
      "different_unit_net": "error",
      "duplicate_reference": "error",
      "duplicate_sheet_names": "error",
      "extra_units": "error",
      "global_label_dangling": "warning",
      "hier_label_mismatch": "error",
      "label_dangling": "error",
      "lib_symbol_issues": "warning",
      "multiple_net_names": "warning",
      "net_not_bus_member": "warning",
      "no_connect_connected": "warning",
      "no_connect_dangling": "warning",
      "pin_not_connected": "error",
      "pin_not_driven": "error",
      "pin_to_pin": "warning",
      "power_pin_not_driven": "error",
      "similar_labels": "warning",
      "unannotated": "error",
      "unit_value_mismatch": "error",
      "unresolved_variable": "error",
      "wire_dangling": "error"
    }
  },
  "libraries": {
    "pinned_footprint_libs": [],
    "pinned_symbol_libs": []
  },
  "meta": {
    "filename": "RN4871_Bluetooth_Shield.kicad_pro",
    "version": 1
  },
  "net_settings": {
    "classes": [
      {
        "bus_width": 12.0,
        "clearance": 0.4,
        "diff_pair_gap": 0.25,
        "diff_pair_via_gap": 0.25,
        "diff_pair_width": 0.2,
        "line_style": 0,
        "microvia_diameter": 0.3,
        "microvia_drill": 0.1,
        "name": "Default",
        "pcb_color": "rgba(0, 0, 0, 0.000)",
        "schematic_color": "rgba(0, 0, 0, 0.000)",
        "track_width": 0.4,
        "via_diameter": 1.6,
        "via_drill": 0.8,
        "wire_width": 6.0
      }
    ],
    "meta": {
      "version": 2
    },
    "net_colors": null
  },
  "pcbnew": {
    "last_paths": {
      "gencad": "",
      "idf": "",
      "netlist": "",
      "specctra_dsn": "",
      "step": "",
      "vrml": ""
    },
    "page_layout_descr_file": ""
  },
  "schematic": {
    "annotate_start_num": 0,
    "drawing": {
      "default_line_thickness": 6.0,
      "default_text_size": 50.0,
      "field_names": [],
      "intersheets_ref_own_page": false,
      "intersheets_ref_prefix": "",
      "intersheets_ref_short": false,
      "intersheets_ref_show": false,
      "intersheets_ref_suffix": "",
      "junction_size_choice": 3,
      "label_size_ratio": 0.375,
      "pin_symbol_size": 25.0,
      "text_offset_ratio": 0.15
    },
    "legacy_lib_dir": "",
    "legacy_lib_list": [],
    "meta": {
      "version": 1
    },
    "net_format_name": "",
    "ngspice": {
      "fix_include_paths": true,
      "fix_passive_vals": false,
      "meta": {
        "version": 0
      },
      "model_mode": 0,
      "workbook_filename": ""
    },
    "page_layout_descr_file": "",
    "plot_directory": "",
    "spice_adjust_passive_values": false,
    "spice_external_command": "spice \"%I\"",
    "subpart_first_id": 65,
    "subpart_id_separator": 0
  },
  "sheets": [
    [
      "4a3de707-ad0d-490f-a465-19f67df8b238",
      ""
    ]
  ],
  "text_variables": {}
}
